…
``` r
library(PatricksPlants)
library(dplyr)
library(ggplot2)

# Filtering data by allotment.
# The allotment id is quoted because it is coded as a factor
plants_surveyed <- patricks_plants %>%
  filter(allotment == "03009") %>%  # filter works on rows
  select(survey_id, plant_id) %>%   # select works on columns
  return(.)

# To see all records use print(plants_at_sites, n = nrow(plants_at_sites))
plants_surveyed
#> # A tibble: 955 x 2
#>    survey_id plant_id
#>        <int> <fct>   
#>  1      1395 AMAC    
#>  2      1522 AMPA    
#>  3      1523 AMPA    
#>  4      3830 AMPA    
#>  5       197 CHENO   
#>  6       198 CHENO   
#>  7      3830 CHENO   
#>  8      3895 KRLA2   
#>  9      3896 KRLA2   
#> 10       191 SATR12  
#> # … with 945 more rows
…
# Summarize species records by the proportion of sites where they occur
prop <- plants_surveyed %>%
  group_by(plant_id) %>%
  summarize(prop_sites = n() / length(unique(plants_surveyed$survey_id))) %>%
  arrange(desc(prop_sites))

prop
#> # A tibble: 154 x 2
#>    plant_id prop_sites
#>    <fct>         <dbl>
#>  1 BOBAB3        0.686
#>  2 DAPU7         0.667
#>  3 MUPO2         0.588
#>  4 ACNA2         0.549
#>  5 LATR2         0.549
#>  6 BAAB          0.529
#>  7 PLMU3         0.490
#>  8 ARAD          0.471
#>  9 ASNU4         0.431
#> 10 CRPO5         0.431
#> # … with 144 more rows

# Further summarize by proportion of species at proportion of sites
prop_x_prop <- prop %>%
  group_by(prop_sites) %>%
  summarize(prop_species = n() / length(prop$plant_id)) %>%
  select(prop_species, prop_sites) %>% # selecting in the order for display
  arrange(desc(prop_species))

prop_x_prop
#> # A tibble: 24 x 2
#>    prop_species prop_sites
#>           <dbl>      <dbl>
#>  1       0.279      0.0196
#>  2       0.143      0.0392
#>  3       0.104      0.0588
#>  4       0.0974     0.0980
#>  5       0.0649     0.137 
#>  6       0.0584     0.118 
#>  7       0.0325     0.0784
#>  8       0.0325     0.196 
#>  9       0.0195     0.157 
#> 10       0.0195     0.255 
#> # … with 14 more rows
…
